%!PS-Adobe-3.0 EPSF-3.0
%%HiResBoundingBox: 0 0 197 142
%%BoundingBox: 0 0 197 142
%%Creator: Serif Affinity
%LanguageLevel: 3
%%DocumentData: Clean7Bit
%ADO_ContainsXMP: MainFirst
%%EndComments
%%BeginProlog
101 dict begin
/m/moveto
/l/lineto
/c/curveto
3{load def}repeat
%%EndProlog
/currentdistillerparams where
{pop currentdistillerparams /CoreDistVersion get 5000 lt} {true} ifelse
{userdict /EPSHandler1_pdfmark /cleartomark load put
userdict /EPSHandler1_ReadMetadata_pdfmark {flushfile cleartomark} bind put}
{ userdict /EPSHandler1_pdfmark /pdfmark load put
userdict /EPSHandler1_ReadMetadata_pdfmark {/PUT pdfmark} bind put } ifelse
[/NamespacePush EPSHandler1_pdfmark
[/_objdef {eps_metadata_stream} /type /stream /OBJ EPSHandler1_pdfmark
[{eps_metadata_stream} 2 dict begin
/Type /Metadata def /Subtype /XML def currentdict end /PUT EPSHandler1_pdfmark
[{eps_metadata_stream}
currentfile 0 (% &&end EPS XMP packet marker&&)
/SubFileDecode filter EPSHandler1_ReadMetadata_pdfmark
<?xpacket begin="﻿" id="W5M0MpCehiHzreSzNTczkc9d"?>
<x:xmpmeta xmlns:x="adobe:ns:meta/" x:xmptk="XMP Core 5.5.0">
 <rdf:RDF xmlns:rdf="http://www.w3.org/1999/02/22-rdf-syntax-ns#">
  <rdf:Description rdf:about=""
    xmlns:exif="http://ns.adobe.com/exif/1.0/"
    xmlns:tiff="http://ns.adobe.com/tiff/1.0/"
    xmlns:photoshop="http://ns.adobe.com/photoshop/1.0/"
    xmlns:xmp="http://ns.adobe.com/xap/1.0/"
    xmlns:xmpMM="http://ns.adobe.com/xap/1.0/mm/"
    xmlns:stEvt="http://ns.adobe.com/xap/1.0/sType/ResourceEvent#"
   exif:PixelXDimension="820"
   exif:PixelYDimension="591"
   exif:ColorSpace="65535"
   tiff:ImageWidth="820"
   tiff:ImageLength="591"
   tiff:ResolutionUnit="2"
   tiff:XResolution="300.0"
   tiff:YResolution="300.0"
   photoshop:ColorMode="4"
   photoshop:ICCProfile="U.S. Web Coated (SWOP) v2"
   xmp:ModifyDate="2020-02-27T22:58:52+01:00"
   xmp:MetadataDate="2020-02-27T22:58:52+01:00">
   <xmpMM:History>
    <rdf:Seq>
     <rdf:li
      stEvt:action="produced"
      stEvt:softwareAgent="Affinity Designer 1.7.3"
      stEvt:when="2020-02-27T22:58:52+01:00"/>
    </rdf:Seq>
   </xmpMM:History>
  </rdf:Description>
 </rdf:RDF>
</x:xmpmeta>
                                                                                                    
                                                                                                    
                                                                                                    
                                                                                                    
                                                                                                    
                                                                                                    
                                                                                                    
                                                                                                    
                                                                                                    
                                                                                                    
                                                                                                    
                                                                                                    
                                                                                                    
                                                                                                    
                                                                                                    
                                                                                                    
                                                                                                    
                                                                                                    
                                                                                                    
                                                                                                    
                           
<?xpacket end="w"?>
% &&end EPS XMP packet marker&&
[/Document
1 dict begin /Metadata {eps_metadata_stream} def
currentdict end /BDC EPSHandler1_pdfmark
[/NamespacePop EPSHandler1_pdfmark

gsave
 
 % Ebene
  
  % Kurven
    newpath
    141.328 72.155 m
    141.328 72.155 167.173 72.155 167.173 72.155 c
    175.778 72.155 182.165 70.766 186.319 67.969 c
    190.488 65.175 192.565 60.928 192.565 55.227 c
    192.565 51.011 191.472 47.56 189.271 44.842 c
    187.068 42.125 183.898 40.315 179.759 39.392 c
    183.164 38.143 185.913 34.599 187.989 28.743 c
    187.989 28.743 187.989 28.695 187.989 28.695 c
    187.989 28.695 195.767 7.146 195.767 7.146 c
    195.767 7.146 177.698 7.146 177.698 7.146 c
    177.698 7.146 171.983 24.947 171.983 24.947 c
    171.061 27.806 169.812 29.789 168.235 30.897 c
    166.642 31.991 164.174 32.537 160.817 32.537 c
    160.817 32.537 158.303 32.537 158.303 32.537 c
    158.303 32.537 158.303 7.146 158.303 7.146 c
    158.303 7.146 141.328 7.146 141.328 7.146 c
    141.328 7.146 141.328 72.155 141.328 72.155 c
    closepath
    158.303 60.724 m
    158.303 60.724 158.303 44.061 158.303 44.061 c
    158.303 44.061 164.393 44.061 164.393 44.061 c
    168.141 44.061 170.952 44.733 172.826 46.091 c
    174.699 47.45 175.637 49.496 175.637 52.214 c
    175.637 55.133 174.59 57.289 172.498 58.662 c
    170.421 60.037 167.11 60.724 162.597 60.724 c
    162.597 60.724 158.303 60.724 158.303 60.724 c
    closepath
    /DeviceCMYK setcolorspace
    0.839 0.29 0.404 0.035 setcolor
    fill
  
  % Kurve
    141.313 72.155 m
    140.649 110.255 109.525 141.031 71.264 141.031 c
    32.587 141.031 1.233 109.677 1.233 71 c
    1.233 32.323 32.587 0.969 71.264 0.969 c
    82.031 0.969 92.229 3.398 101.344 7.739 c
    101.344 7.739 95.13 10.636 92.872 12.961 c
    88.229 17.76 85.906 24.914 85.906 34.403 c
    85.906 34.403 85.906 72.165 85.906 72.165 c
    85.906 72.165 103.206 72.165 103.206 72.165 c
    103.206 72.165 103.206 34.403 103.206 34.403 c
    103.206 28.857 104.032 24.868 105.668 22.388 c
    107.319 19.928 109.953 18.697 113.569 18.697 c
    117.278 18.697 120.082 20.02 121.969 22.67 c
    123.855 25.317 124.806 29.231 124.806 34.403 c
    124.806 34.403 124.806 72.165 124.806 72.165 c
    124.806 72.165 141.313 72.155 141.313 72.155 c
    closepath
    /DeviceCMYK setcolorspace
    0.839 0.29 0.404 0.035 setcolor
    fill
 grestore
showpage
end
/currentdistillerparams where
{pop currentdistillerparams /CoreDistVersion get 5000 lt} {true} ifelse
{userdict /EPSHandler1_pdfmark /cleartomark load put}
{ userdict /EPSHandler1_pdfmark /pdfmark load put} ifelse
[/EMC EPSHandler1_pdfmark
